%YAML 1.1
%TAG !u! tag:unity3d.com,2011:
--- !u!1 &2575023080541643602
GameObject:
  m_ObjectHideFlags: 0
  m_CorrespondingSourceObject: {fileID: 0}
  m_PrefabInstance: {fileID: 0}
  m_PrefabAsset: {fileID: 0}
  serializedVersion: 6
  m_Component:
  - component: {fileID: 8784778716900371969}
  - component: {fileID: 4769739895421663566}
  m_Layer: 0
  m_Name: CostumeHeadFeather
  m_TagString: Untagged
  m_Icon: {fileID: 0}
  m_NavMeshLayer: 0
  m_StaticEditorFlags: 0
  m_IsActive: 1
--- !u!4 &8784778716900371969
Transform:
  m_ObjectHideFlags: 0
  m_CorrespondingSourceObject: {fileID: 0}
  m_PrefabInstance: {fileID: 0}
  m_PrefabAsset: {fileID: 0}
  m_GameObject: {fileID: 2575023080541643602}
  m_LocalRotation: {x: 0, y: 0, z: 0, w: 1}
  m_LocalPosition: {x: 3.2817671, y: 2.340149, z: -4.6113677}
  m_LocalScale: {x: 1, y: 1, z: 1}
  m_Children: []
  m_Father: {fileID: 0}
  m_RootOrder: 0
  m_LocalEulerAnglesHint: {x: 0, y: 0, z: 0}
--- !u!114 &4769739895421663566
MonoBehaviour:
  m_ObjectHideFlags: 0
  m_CorrespondingSourceObject: {fileID: 0}
  m_PrefabInstance: {fileID: 0}
  m_PrefabAsset: {fileID: 0}
  m_GameObject: {fileID: 2575023080541643602}
  m_Enabled: 1
  m_EditorHideFlags: 0
  m_Script: {fileID: 11500000, guid: 8c64b6a87abc0ec408feab9992749c08, type: 3}
  m_Name: 
  m_EditorClassIdentifier: 
  Id: HeadFeather
  Unlocked: 0
  SpriteAsset: {fileID: 5202639855572434191, guid: 658c820025b0ba24fb259b1010215d98,
    type: 3}
  GoldCost: 10
